Biostat 203B Homework 3
…
Warning: ORDER BY is ignored in subqueries without LIMIT
ℹ Do you need to move arrange() later in the pipeline or use window_order() instead?
ORDER BY is ignored in subqueries without LIMIT
ℹ Do you need to move arrange() later in the pipeline or use window_order() instead?

# A tibble: 52,544 × 9
   subject_id hematocrit sodium creatinine bicarbonate potassium WBC_count
        <int>      <dbl>  <dbl>      <dbl>       <dbl>     <dbl>     <dbl>
 1   10123949       21.5    120        1.9          10       3.3       4.1
 2   10297774       19.2    123        1.1           7       3         5.1
 3   14594786       25.2    113        0.5           2       2.7       4.4
 4   17074525       19.7    129        0.3          24       3.2       5.4
 5   17277688       20.6    120        0.3          12       2.4       2.4
 6   17396346       19.9    122        0.8          20       2.2       5.8
 7   17443832       28      139        1.6          12       3.5      11.8
 8   17466107       15.7    121        0             6       2.9       0.6
 9   19265652       17.3    114        3.5           7       2.9       3.9
10   10910797       19.6    117        0.5          18       3.3       1.9
   chloride glucose
      <dbl>   <dbl>
 1       80      28
 2       79      21
 3       74      58
 4       82      88
 5       81      59
 6       79      41
 7      112     111
 8       80      70
 9       69      28
10       82      82
# … with 52,534 more rows
…
Warning: ORDER BY is ignored in subqueries without LIMIT
ℹ Do you need to move arrange() later in the pipeline or use window_order() instead?
ORDER BY is ignored in subqueries without LIMIT
ℹ Do you need to move arrange() later in the pipeline or use window_order() instead?

# A tibble: 53,150 × 6
   subject_id mean_non_invasive_blood_pressure
        <int>                            <dbl>
 1   18325012                               23
 2   16714701                               89
 3   12862321                               31
 4   12724735                               29
 5   15936063                                0
 6   15237577                               24
 7   10131457                               25
 8   11542052                               18
 9   14516348                               15
10   19017919                               32
   systolic_non_invasive_blood_pressure heart_rate body_temperature
                                  <dbl>      <dbl>            <dbl>
 1                                    0         65             97.6
 2                                  136         73             96.5
 3                                   62         57             95.3
 4                                   63         50             96  
 5                                    0          0             88  
 6                                   53         49             96  
 7                                   39         33             97.4
 8                                   81         55             36.9
 9                                   31         46             97.2
10                                   64         46             96.5
   respiratory_rate
              <dbl>
 1               10
 2               10
 3                0
 4                4
 5                0
 6                0
 7                8
 8                0
 9                0
10                9
# … with 53,140 more rows
…
